<?xml version="1.0" standalone="no"?>
<!DOCTYPE svg PUBLIC "-//W3C//DTD SVG 20010904//EN"
 "http://www.w3.org/TR/2001/REC-SVG-20010904/DTD/svg10.dtd">
<svg version="1.0" xmlns="http://www.w3.org/2000/svg"
 width="500.000000pt" height="500.000000pt" viewBox="0 0 500.000000 500.000000"
 preserveAspectRatio="xMidYMid meet">

<g transform="translate(0.000000,500.000000) scale(0.100000,-0.100000)"
fill="#000000" stroke="none">
<path fill="#FFFFFF" d="M2277 3023 c18 -98 41 -218 50 -268 32 -172 24 -64 -12 167 -43 284
-42 278 -59 278 -10 0 -5 -40 21 -177z"/>
<path fill="#FFFFFF" d="M2585 3188 c-2 -7 -20 -116 -40 -243 -19 -126 -38 -241 -41 -255 -3
-15 -2 -21 4 -15 7 8 103 492 102 518 0 12 -20 8 -25 -5z"/>
<path fill="#FFFFFF" d="M1927 3083 c-2 -5 57 -112 132 -239 75 -128 137 -229 139 -224 4 10
-249 470 -259 470 -4 0 -10 -3 -12 -7z"/>
<path fill="#FFFFFF" d="M2781 2855 c-73 -131 -130 -239 -127 -242 2 -3 50 73 106 169 57 95
118 199 138 231 23 39 31 62 24 69 -6 6 -54 -71 -141 -227z"/>
<path fill="#FFFFFF" d="M1667 2867 c-4 -12 193 -184 391 -341 109 -87 -175 176 -369 341 -14
12 -17 12 -22 0z"/>
<path fill="#FFFFFF" d="M2984 2704 c-104 -91 -196 -173 -204 -181 -39 -40 30 13 218 166 178
145 214 181 183 181 -5 0 -94 -75 -197 -166z"/>
<path fill="#5658DD" d="M2154 2478 c-48 -84 -89 -156 -91 -161 -3 -4 37 -79 88 -167 l92
-160 185 2 186 3 87 150 c49 83 88 156 89 163 0 6 -39 82 -87 167 l-88 154
-187 1 -186 0 -88 -152z m316 -40 c-83 -237 -119 -328 -120 -303 0 18 125 355
132 355 4 0 -1 -24 -12 -52z m118 -67 c34 -24 62 -47 62 -51 0 -4 -24 -27 -52
-51 -79 -66 -92 -75 -87 -63 2 7 30 33 62 58 31 26 57 50 57 54 0 4 -29 27
-65 52 -36 25 -65 49 -65 53 0 10 9 4 88 -52z m-293 16 c-22 -18 -53 -44 -69
-58 l-29 -25 67 -48 c37 -26 65 -50 62 -53 -5 -5 -132 82 -141 97 -6 9 124
120 140 120 5 -1 -8 -15 -30 -33z"/>
<path fill="#FFFFFF" d="M1492 2568 c5 -13 469 -187 498 -187 8 0 -97 45 -235 99 -137 55
-254 100 -258 100 -5 0 -7 -6 -5 -12z"/>
<path fill="#FFFFFF" d="M3110 2485 c-129 -52 -242 -98 -250 -104 -13 -9 146 44 422 141 61
22 85 35 81 44 -3 8 -8 14 -12 13 -3 -1 -112 -43 -241 -94z"/>
<path fill="#FFFFFF" d="M1430 2233 c0 -10 60 -13 273 -12 303 2 247 15 -91 21 -141 2 -182 0
-182 -9z"/>
<path fill="#FFFFFF" d="M2995 2230 c-91 -5 -55 -6 153 -8 176 -1 272 2 272 8 0 11 -211 11
-425 0z"/>

<path fill="#5658DD" d="M1916 2684 c-22 -21 -21 -80 1 -88 24 -10 44 15 50 63 5 37 3 41 -15
41 -11 0 -28 -7 -36 -16z"/>
<path fill="#5658DD" d="M3844 2856 c-3 -8 -4 -25 -2 -38 2 -19 10 -24 40 -26 44 -4 66 24 48
58 -13 24 -77 28 -86 6z"/>
<path fill="#5658DD" d="M4000 2670 l0 -190 50 0 50 0 0 39 c0 22 6 44 15 51 12 10 19 3 45
-39 l32 -51 54 0 54 0 -51 80 -51 80 28 36 c16 20 37 47 47 60 l19 24 -54 0
-53 0 -45 -60 c-24 -33 -45 -60 -45 -60 0 0 1 50 3 110 l4 110 -51 0 -51 0 0
-190z"/>
<path fill="#FFFFFF" d="M2547 2668 c-31 -96 -57 -177 -57 -181 0 -5 23 -7 52 -5 49 3 52 5
60 36 8 32 9 32 68 32 59 0 60 0 68 -32 8 -31 11 -33 61 -36 47 -3 52 -1 47
15 -3 10 -30 90 -59 178 l-54 160 -64 3 -64 3 -58 -173z m145 25 l16 -63 -40
0 c-28 0 -39 4 -35 13 2 6 10 38 17 70 8 32 16 54 20 50 4 -4 14 -36 22 -70z"/>
<path fill="#5658DD" d="M3520 2800 l0 -40 45 0 45 0 0 -140 0 -140 45 0 45 0 0 140 0 140 45
0 45 0 0 40 0 40 -135 0 -135 0 0 -40z"/>
<path fill="#FFFFFF" d="M2890 2560 l0 -200 45 0 45 0 0 77 c0 73 1 75 18 60 21 -19 73 -22
103 -7 30 16 50 65 50 124 1 65 -7 94 -34 124 -24 26 -83 30 -113 7 -25 -19
-34 -19 -34 0 0 11 -11 15 -40 15 l-40 0 0 -200z m160 111 c27 -51 2 -129 -37
-117 -48 15 -42 136 7 136 11 0 24 -9 30 -19z"/>
<path fill="#FFFFFF" d="M3210 2560 l0 -200 51 0 51 0 -4 74 c-3 72 -3 73 17 60 31 -22 88
-18 113 9 54 58 57 177 6 232 -30 32 -88 34 -120 4 l-22 -21 -7 21 c-5 17 -15
21 -46 21 l-39 0 0 -200z m166 107 c17 -70 -14 -137 -50 -108 -19 16 -22 101
-4 119 20 20 47 14 54 -11z"/>
<path fill="#5658DD" d="M3840 2620 l0 -140 45 0 45 0 0 140 0 140 -45 0 -45 0 0 -140z"/>
<path fill="#5658DD" d="M4373 2748 c-12 -6 -27 -23 -34 -39 -19 -47 2 -83 67 -113 30 -14 54
-30 54 -35 0 -16 -26 -20 -66 -10 -60 13 -64 12 -64 -25 0 -41 11 -46 91 -46
91 0 129 26 129 86 0 42 -19 65 -76 90 -34 15 -52 28 -48 35 6 11 51 8 84 -5
11 -5 19 3 27 24 11 29 10 32 -13 41 -33 12 -123 10 -151 -3z"/>


</g>
</svg>
